{
	"artifacts" : 
	[
		{
			"path" : "CMakeFiles/BSP_FreeRTOS.all.dir/./947af7f3ec4034ba71e2ca533066ac85/com.sysprogs.arm.renesas/3.3.0/ra/aws/amazon-freertos/freertos_kernel/event_groups.c.obj"
		},
		{
			"path" : "CMakeFiles/BSP_FreeRTOS.all.dir/./fbadafc644a7febeddb0917184bf4f65/arm-eabi/com.sysprogs.arm.renesas/3.3.0/ra/aws/amazon-freertos/freertos_kernel/list.c.obj"
		},
		{
			"path" : "CMakeFiles/BSP_FreeRTOS.all.dir/./fbadafc644a7febeddb0917184bf4f65/arm-eabi/com.sysprogs.arm.renesas/3.3.0/ra/aws/amazon-freertos/freertos_kernel/queue.c.obj"
		},
		{
			"path" : "CMakeFiles/BSP_FreeRTOS.all.dir/./947af7f3ec4034ba71e2ca533066ac85/com.sysprogs.arm.renesas/3.3.0/ra/aws/amazon-freertos/freertos_kernel/stream_buffer.c.obj"
		},
		{
			"path" : "CMakeFiles/BSP_FreeRTOS.all.dir/./fbadafc644a7febeddb0917184bf4f65/arm-eabi/com.sysprogs.arm.renesas/3.3.0/ra/aws/amazon-freertos/freertos_kernel/tasks.c.obj"
		},
		{
			"path" : "CMakeFiles/BSP_FreeRTOS.all.dir/./fbadafc644a7febeddb0917184bf4f65/arm-eabi/com.sysprogs.arm.renesas/3.3.0/ra/aws/amazon-freertos/freertos_kernel/timers.c.obj"
		},
		{
			"path" : "CMakeFiles/BSP_FreeRTOS.all.dir/./b40b9ff1d663ee8a997016f02f6e2ad7/EmbeddedBSPs/arm-eabi/com.sysprogs.arm.renesas/3.3.0/ra/fsp/src/rm_freertos_port/port.c.obj"
		}
	],
	"backtrace" : 5,
	"backtraceGraph" : 
	{
		"commands" : 
		[
			"add_library",
			"create_bsp_library",
			"create_bsp_framework_library_from_vars",
			"visualgdb_bsp_instantiate_referenced_frameworks",
			"find_bsp",
			"target_link_libraries",
			"set_property",
			"copy_property_if_not_defined"
		],
		"files" : 
		[
			"C:/Program Files (x86)/Sysprogs/VisualGDB/CMake/embedded/bsp.cmake",
			"C:/Program Files (x86)/Sysprogs/VisualGDB/CMake/embedded/efp.cmake",
			"C:/Users/WELCOME/AppData/Local/VisualGDB/EmbeddedBSPs/arm-eabi/com.sysprogs.arm.renesas/3.3.0/bsp.cmake",
			"CMakeLists.txt"
		],
		"nodes" : 
		[
			{
				"file" : 3
			},
			{
				"command" : 4,
				"file" : 3,
				"line" : 5,
				"parent" : 0
			},
			{
				"command" : 3,
				"file" : 0,
				"line" : 379,
				"parent" : 1
			},
			{
				"command" : 2,
				"file" : 2,
				"line" : 329073,
				"parent" : 2
			},
			{
				"command" : 1,
				"file" : 1,
				"line" : 13,
				"parent" : 3
			},
			{
				"command" : 0,
				"file" : 0,
				"line" : 43,
				"parent" : 4
			},
			{
				"command" : 5,
				"file" : 1,
				"line" : 37,
				"parent" : 3
			},
			{
				"command" : 7,
				"file" : 0,
				"line" : 395,
				"parent" : 1
			},
			{
				"command" : 6,
				"file" : 0,
				"line" : 57,
				"parent" : 7
			}
		]
	},
	"compileGroups" : 
	[
		{
			"compileCommandFragments" : 
			[
				{
					"fragment" : "-g3 -O0"
				},
				{
					"backtrace" : 6,
					"fragment" : "-mcpu=cortex-m33"
				},
				{
					"backtrace" : 6,
					"fragment" : "-mthumb"
				},
				{
					"backtrace" : 6,
					"fragment" : "-mcmse"
				},
				{
					"backtrace" : 6,
					"fragment" : "-ffunction-sections"
				},
				{
					"backtrace" : 6,
					"fragment" : "-fdata-sections"
				},
				{
					"fragment" : "-std=c99"
				}
			],
			"defines" : 
			[
				{
					"backtrace" : 6,
					"define" : "ARM_MATH_CM33"
				},
				{
					"backtrace" : 6,
					"define" : "DEBUG=1"
				},
				{
					"backtrace" : 6,
					"define" : "_RA_CORE=CM33"
				},
				{
					"backtrace" : 6,
					"define" : "_RENESAS_RA_"
				}
			],
			"includes" : 
			[
				{
					"backtrace" : 6,
					"path" : "C:/Users/WELCOME/AppData/Local/VisualGDB/EmbeddedBSPs/arm-eabi/com.sysprogs.arm.renesas/3.3.0"
				},
				{
					"backtrace" : 6,
					"path" : "C:/Users/WELCOME/AppData/Local/VisualGDB/EmbeddedBSPs/arm-eabi/com.sysprogs.arm.renesas/3.3.0/ra/arm/CMSIS_5/CMSIS/Core/Include"
				},
				{
					"backtrace" : 6,
					"path" : "C:/Users/WELCOME/AppData/Local/VisualGDB/EmbeddedBSPs/arm-eabi/com.sysprogs.arm.renesas/3.3.0/src"
				},
				{
					"backtrace" : 6,
					"path" : "C:/Users/WELCOME/AppData/Local/VisualGDB/EmbeddedBSPs/arm-eabi/com.sysprogs.arm.renesas/3.3.0/ra/fsp/inc"
				},
				{
					"backtrace" : 6,
					"path" : "C:/Users/WELCOME/AppData/Local/VisualGDB/EmbeddedBSPs/arm-eabi/com.sysprogs.arm.renesas/3.3.0/ra/fsp/inc/api"
				},
				{
					"backtrace" : 6,
					"path" : "C:/Users/WELCOME/AppData/Local/VisualGDB/EmbeddedBSPs/arm-eabi/com.sysprogs.arm.renesas/3.3.0/ra/fsp/inc/instances"
				},
				{
					"backtrace" : 6,
					"path" : "D:/NexiGo/Visual_Studio_Project_TEST/EmbeddedProject_Temp1/ra_cfg/fsp_cfg/bsp"
				},
				{
					"backtrace" : 6,
					"path" : "D:/NexiGo/Visual_Studio_Project_TEST/EmbeddedProject_Temp1/ra_gen"
				},
				{
					"backtrace" : 6,
					"path" : "C:/Users/WELCOME/AppData/Local/VisualGDB/EmbeddedBSPs/arm-eabi/com.sysprogs.arm.renesas/3.3.0/ra/fsp/src/rm_freertos_port"
				},
				{
					"backtrace" : 6,
					"path" : "C:/Users/WELCOME/AppData/Local/VisualGDB/EmbeddedBSPs/arm-eabi/com.sysprogs.arm.renesas/3.3.0/ra/aws/amazon-freertos/freertos_kernel/include"
				},
				{
					"backtrace" : 6,
					"path" : "D:/NexiGo/Visual_Studio_Project_TEST/EmbeddedProject_Temp1/ra_cfg/aws"
				},
				{
					"backtrace" : 6,
					"path" : "D:/NexiGo/Visual_Studio_Project_TEST/EmbeddedProject_Temp1/ra_cfg/fsp_cfg"
				}
			],
			"language" : "C",
			"languageStandard" : 
			{
				"backtraces" : 
				[
					8
				],
				"standard" : "99"
			},
			"sourceIndexes" : 
			[
				0,
				1,
				2,
				3,
				4,
				5,
				6
			]
		}
	],
	"dependencies" : 
	[
		{
			"backtrace" : 6,
			"id" : "BSP::@6890427a1f51a3e7e1df"
		}
	],
	"id" : "BSP_FreeRTOS.all::@6890427a1f51a3e7e1df",
	"name" : "BSP_FreeRTOS.all",
	"paths" : 
	{
		"build" : ".",
		"source" : "."
	},
	"sourceGroups" : 
	[
		{
			"name" : "Source Files",
			"sourceIndexes" : 
			[
				0,
				1,
				2,
				3,
				4,
				5,
				6
			]
		},
		{
			"name" : "Header Files",
			"sourceIndexes" : 
			[
				7,
				8,
				9,
				10,
				11,
				12,
				13,
				14,
				15,
				16,
				17,
				18,
				19,
				20,
				21,
				22,
				23
			]
		},
		{
			"name" : "Object Libraries",
			"sourceIndexes" : 
			[
				24
			]
		}
	],
	"sources" : 
	[
		{
			"backtrace" : 5,
			"compileGroupIndex" : 0,
			"path" : "C:/Users/WELCOME/AppData/Local/VisualGDB/EmbeddedBSPs/arm-eabi/com.sysprogs.arm.renesas/3.3.0/ra/aws/amazon-freertos/freertos_kernel/event_groups.c",
			"sourceGroupIndex" : 0
		},
		{
			"backtrace" : 5,
			"compileGroupIndex" : 0,
			"path" : "C:/Users/WELCOME/AppData/Local/VisualGDB/EmbeddedBSPs/arm-eabi/com.sysprogs.arm.renesas/3.3.0/ra/aws/amazon-freertos/freertos_kernel/list.c",
			"sourceGroupIndex" : 0
		},
		{
			"backtrace" : 5,
			"compileGroupIndex" : 0,
			"path" : "C:/Users/WELCOME/AppData/Local/VisualGDB/EmbeddedBSPs/arm-eabi/com.sysprogs.arm.renesas/3.3.0/ra/aws/amazon-freertos/freertos_kernel/queue.c",
			"sourceGroupIndex" : 0
		},
		{
			"backtrace" : 5,
			"compileGroupIndex" : 0,
			"path" : "C:/Users/WELCOME/AppData/Local/VisualGDB/EmbeddedBSPs/arm-eabi/com.sysprogs.arm.renesas/3.3.0/ra/aws/amazon-freertos/freertos_kernel/stream_buffer.c",
			"sourceGroupIndex" : 0
		},
		{
			"backtrace" : 5,
			"compileGroupIndex" : 0,
			"path" : "C:/Users/WELCOME/AppData/Local/VisualGDB/EmbeddedBSPs/arm-eabi/com.sysprogs.arm.renesas/3.3.0/ra/aws/amazon-freertos/freertos_kernel/tasks.c",
			"sourceGroupIndex" : 0
		},
		{
			"backtrace" : 5,
			"compileGroupIndex" : 0,
			"path" : "C:/Users/WELCOME/AppData/Local/VisualGDB/EmbeddedBSPs/arm-eabi/com.sysprogs.arm.renesas/3.3.0/ra/aws/amazon-freertos/freertos_kernel/timers.c",
			"sourceGroupIndex" : 0
		},
		{
			"backtrace" : 5,
			"compileGroupIndex" : 0,
			"path" : "C:/Users/WELCOME/AppData/Local/VisualGDB/EmbeddedBSPs/arm-eabi/com.sysprogs.arm.renesas/3.3.0/ra/fsp/src/rm_freertos_port/port.c",
			"sourceGroupIndex" : 0
		},
		{
			"backtrace" : 5,
			"path" : "C:/Users/WELCOME/AppData/Local/VisualGDB/EmbeddedBSPs/arm-eabi/com.sysprogs.arm.renesas/3.3.0/ra/aws/amazon-freertos/freertos_kernel/include/event_groups.h",
			"sourceGroupIndex" : 1
		},
		{
			"backtrace" : 5,
			"path" : "C:/Users/WELCOME/AppData/Local/VisualGDB/EmbeddedBSPs/arm-eabi/com.sysprogs.arm.renesas/3.3.0/ra/aws/amazon-freertos/freertos_kernel/include/atomic.h",
			"sourceGroupIndex" : 1
		},
		{
			"backtrace" : 5,
			"path" : "C:/Users/WELCOME/AppData/Local/VisualGDB/EmbeddedBSPs/arm-eabi/com.sysprogs.arm.renesas/3.3.0/ra/aws/amazon-freertos/freertos_kernel/include/FreeRTOS.h",
			"sourceGroupIndex" : 1
		},
		{
			"backtrace" : 5,
			"path" : "C:/Users/WELCOME/AppData/Local/VisualGDB/EmbeddedBSPs/arm-eabi/com.sysprogs.arm.renesas/3.3.0/ra/aws/amazon-freertos/freertos_kernel/include/message_buffer.h",
			"sourceGroupIndex" : 1
		},
		{
			"backtrace" : 5,
			"path" : "C:/Users/WELCOME/AppData/Local/VisualGDB/EmbeddedBSPs/arm-eabi/com.sysprogs.arm.renesas/3.3.0/ra/aws/amazon-freertos/freertos_kernel/include/queue.h",
			"sourceGroupIndex" : 1
		},
		{
			"backtrace" : 5,
			"path" : "C:/Users/WELCOME/AppData/Local/VisualGDB/EmbeddedBSPs/arm-eabi/com.sysprogs.arm.renesas/3.3.0/ra/aws/amazon-freertos/freertos_kernel/include/semphr.h",
			"sourceGroupIndex" : 1
		},
		{
			"backtrace" : 5,
			"path" : "C:/Users/WELCOME/AppData/Local/VisualGDB/EmbeddedBSPs/arm-eabi/com.sysprogs.arm.renesas/3.3.0/ra/aws/amazon-freertos/freertos_kernel/include/stream_buffer.h",
			"sourceGroupIndex" : 1
		},
		{
			"backtrace" : 5,
			"path" : "C:/Users/WELCOME/AppData/Local/VisualGDB/EmbeddedBSPs/arm-eabi/com.sysprogs.arm.renesas/3.3.0/ra/aws/amazon-freertos/freertos_kernel/include/task.h",
			"sourceGroupIndex" : 1
		},
		{
			"backtrace" : 5,
			"path" : "C:/Users/WELCOME/AppData/Local/VisualGDB/EmbeddedBSPs/arm-eabi/com.sysprogs.arm.renesas/3.3.0/ra/aws/amazon-freertos/freertos_kernel/include/timers.h",
			"sourceGroupIndex" : 1
		},
		{
			"backtrace" : 5,
			"path" : "C:/Users/WELCOME/AppData/Local/VisualGDB/EmbeddedBSPs/arm-eabi/com.sysprogs.arm.renesas/3.3.0/ra/aws/amazon-freertos/freertos_kernel/include/deprecated_definitions.h",
			"sourceGroupIndex" : 1
		},
		{
			"backtrace" : 5,
			"path" : "C:/Users/WELCOME/AppData/Local/VisualGDB/EmbeddedBSPs/arm-eabi/com.sysprogs.arm.renesas/3.3.0/ra/aws/amazon-freertos/freertos_kernel/include/list.h",
			"sourceGroupIndex" : 1
		},
		{
			"backtrace" : 5,
			"path" : "C:/Users/WELCOME/AppData/Local/VisualGDB/EmbeddedBSPs/arm-eabi/com.sysprogs.arm.renesas/3.3.0/ra/aws/amazon-freertos/freertos_kernel/include/mpu_prototypes.h",
			"sourceGroupIndex" : 1
		},
		{
			"backtrace" : 5,
			"path" : "C:/Users/WELCOME/AppData/Local/VisualGDB/EmbeddedBSPs/arm-eabi/com.sysprogs.arm.renesas/3.3.0/ra/aws/amazon-freertos/freertos_kernel/include/mpu_wrappers.h",
			"sourceGroupIndex" : 1
		},
		{
			"backtrace" : 5,
			"path" : "C:/Users/WELCOME/AppData/Local/VisualGDB/EmbeddedBSPs/arm-eabi/com.sysprogs.arm.renesas/3.3.0/ra/aws/amazon-freertos/freertos_kernel/include/portable.h",
			"sourceGroupIndex" : 1
		},
		{
			"backtrace" : 5,
			"path" : "C:/Users/WELCOME/AppData/Local/VisualGDB/EmbeddedBSPs/arm-eabi/com.sysprogs.arm.renesas/3.3.0/ra/aws/amazon-freertos/freertos_kernel/include/projdefs.h",
			"sourceGroupIndex" : 1
		},
		{
			"backtrace" : 5,
			"path" : "C:/Users/WELCOME/AppData/Local/VisualGDB/EmbeddedBSPs/arm-eabi/com.sysprogs.arm.renesas/3.3.0/ra/aws/amazon-freertos/freertos_kernel/include/stack_macros.h",
			"sourceGroupIndex" : 1
		},
		{
			"backtrace" : 5,
			"path" : "C:/Users/WELCOME/AppData/Local/VisualGDB/EmbeddedBSPs/arm-eabi/com.sysprogs.arm.renesas/3.3.0/ra/fsp/src/rm_freertos_port/portmacro.h",
			"sourceGroupIndex" : 1
		},
		{
			"backtrace" : 6,
			"isGenerated" : true,
			"path" : "build/VisualGDB/Debug/CMakeFiles/BSP.dir/C_/Program_Files_(x86)/Sysprogs/VisualGDB/CMake/embedded/dummy.c.obj",
			"sourceGroupIndex" : 2
		}
	],
	"type" : "OBJECT_LIBRARY"
}
