{
	"artifacts" : 
	[
		{
			"path" : "CMakeFiles/BSP_HAL_Drivers.r_ioport.dir/./fbadafc644a7febeddb0917184bf4f65/arm-eabi/com.sysprogs.arm.renesas/3.3.0/ra/fsp/src/r_ioport/r_ioport.c.obj"
		}
	],
	"backtrace" : 5,
	"backtraceGraph" : 
	{
		"commands" : 
		[
			"add_library",
			"create_bsp_library",
			"create_bsp_framework_library_from_vars",
			"visualgdb_bsp_instantiate_referenced_frameworks",
			"find_bsp",
			"target_link_libraries",
			"set_property",
			"copy_property_if_not_defined"
		],
		"files" : 
		[
			"C:/Program Files (x86)/Sysprogs/VisualGDB/CMake/embedded/bsp.cmake",
			"C:/Program Files (x86)/Sysprogs/VisualGDB/CMake/embedded/efp.cmake",
			"C:/Users/WELCOME/AppData/Local/VisualGDB/EmbeddedBSPs/arm-eabi/com.sysprogs.arm.renesas/3.3.0/bsp.cmake",
			"CMakeLists.txt"
		],
		"nodes" : 
		[
			{
				"file" : 3
			},
			{
				"command" : 4,
				"file" : 3,
				"line" : 5,
				"parent" : 0
			},
			{
				"command" : 3,
				"file" : 0,
				"line" : 379,
				"parent" : 1
			},
			{
				"command" : 2,
				"file" : 2,
				"line" : 329361,
				"parent" : 2
			},
			{
				"command" : 1,
				"file" : 1,
				"line" : 13,
				"parent" : 3
			},
			{
				"command" : 0,
				"file" : 0,
				"line" : 43,
				"parent" : 4
			},
			{
				"command" : 5,
				"file" : 1,
				"line" : 37,
				"parent" : 3
			},
			{
				"command" : 7,
				"file" : 0,
				"line" : 395,
				"parent" : 1
			},
			{
				"command" : 6,
				"file" : 0,
				"line" : 57,
				"parent" : 7
			}
		]
	},
	"compileGroups" : 
	[
		{
			"compileCommandFragments" : 
			[
				{
					"fragment" : "-g3 -O0"
				},
				{
					"backtrace" : 6,
					"fragment" : "-mcpu=cortex-m33"
				},
				{
					"backtrace" : 6,
					"fragment" : "-mthumb"
				},
				{
					"backtrace" : 6,
					"fragment" : "-mcmse"
				},
				{
					"backtrace" : 6,
					"fragment" : "-ffunction-sections"
				},
				{
					"backtrace" : 6,
					"fragment" : "-fdata-sections"
				},
				{
					"fragment" : "-std=c99"
				}
			],
			"defines" : 
			[
				{
					"backtrace" : 6,
					"define" : "ARM_MATH_CM33"
				},
				{
					"backtrace" : 6,
					"define" : "DEBUG=1"
				},
				{
					"backtrace" : 6,
					"define" : "_RA_CORE=CM33"
				},
				{
					"backtrace" : 6,
					"define" : "_RENESAS_RA_"
				}
			],
			"includes" : 
			[
				{
					"backtrace" : 6,
					"path" : "C:/Users/WELCOME/AppData/Local/VisualGDB/EmbeddedBSPs/arm-eabi/com.sysprogs.arm.renesas/3.3.0"
				},
				{
					"backtrace" : 6,
					"path" : "C:/Users/WELCOME/AppData/Local/VisualGDB/EmbeddedBSPs/arm-eabi/com.sysprogs.arm.renesas/3.3.0/ra/arm/CMSIS_5/CMSIS/Core/Include"
				},
				{
					"backtrace" : 6,
					"path" : "C:/Users/WELCOME/AppData/Local/VisualGDB/EmbeddedBSPs/arm-eabi/com.sysprogs.arm.renesas/3.3.0/src"
				},
				{
					"backtrace" : 6,
					"path" : "C:/Users/WELCOME/AppData/Local/VisualGDB/EmbeddedBSPs/arm-eabi/com.sysprogs.arm.renesas/3.3.0/ra/fsp/inc"
				},
				{
					"backtrace" : 6,
					"path" : "C:/Users/WELCOME/AppData/Local/VisualGDB/EmbeddedBSPs/arm-eabi/com.sysprogs.arm.renesas/3.3.0/ra/fsp/inc/api"
				},
				{
					"backtrace" : 6,
					"path" : "C:/Users/WELCOME/AppData/Local/VisualGDB/EmbeddedBSPs/arm-eabi/com.sysprogs.arm.renesas/3.3.0/ra/fsp/inc/instances"
				},
				{
					"backtrace" : 6,
					"path" : "D:/NexiGo/Visual_Studio_Project_TEST/EmbeddedProject_Temp1/ra_cfg/fsp_cfg/bsp"
				},
				{
					"backtrace" : 6,
					"path" : "D:/NexiGo/Visual_Studio_Project_TEST/EmbeddedProject_Temp1/ra_gen"
				},
				{
					"backtrace" : 6,
					"path" : "C:/Users/WELCOME/AppData/Local/VisualGDB/EmbeddedBSPs/arm-eabi/com.sysprogs.arm.renesas/3.3.0/ra/fsp/src/rm_freertos_port"
				},
				{
					"backtrace" : 6,
					"path" : "C:/Users/WELCOME/AppData/Local/VisualGDB/EmbeddedBSPs/arm-eabi/com.sysprogs.arm.renesas/3.3.0/ra/aws/amazon-freertos/freertos_kernel/include"
				},
				{
					"backtrace" : 6,
					"path" : "D:/NexiGo/Visual_Studio_Project_TEST/EmbeddedProject_Temp1/ra_cfg/aws"
				},
				{
					"backtrace" : 6,
					"path" : "D:/NexiGo/Visual_Studio_Project_TEST/EmbeddedProject_Temp1/ra_cfg/fsp_cfg"
				}
			],
			"language" : "C",
			"languageStandard" : 
			{
				"backtraces" : 
				[
					8
				],
				"standard" : "99"
			},
			"sourceIndexes" : 
			[
				0
			]
		}
	],
	"dependencies" : 
	[
		{
			"backtrace" : 6,
			"id" : "BSP::@6890427a1f51a3e7e1df"
		}
	],
	"id" : "BSP_HAL_Drivers.r_ioport::@6890427a1f51a3e7e1df",
	"name" : "BSP_HAL_Drivers.r_ioport",
	"paths" : 
	{
		"build" : ".",
		"source" : "."
	},
	"sourceGroups" : 
	[
		{
			"name" : "Source Files",
			"sourceIndexes" : 
			[
				0
			]
		},
		{
			"name" : "Header Files",
			"sourceIndexes" : 
			[
				1,
				2
			]
		},
		{
			"name" : "Object Libraries",
			"sourceIndexes" : 
			[
				3
			]
		}
	],
	"sources" : 
	[
		{
			"backtrace" : 5,
			"compileGroupIndex" : 0,
			"path" : "C:/Users/WELCOME/AppData/Local/VisualGDB/EmbeddedBSPs/arm-eabi/com.sysprogs.arm.renesas/3.3.0/ra/fsp/src/r_ioport/r_ioport.c",
			"sourceGroupIndex" : 0
		},
		{
			"backtrace" : 5,
			"path" : "C:/Users/WELCOME/AppData/Local/VisualGDB/EmbeddedBSPs/arm-eabi/com.sysprogs.arm.renesas/3.3.0/ra/fsp/inc/instances/r_ioport.h",
			"sourceGroupIndex" : 1
		},
		{
			"backtrace" : 5,
			"path" : "C:/Users/WELCOME/AppData/Local/VisualGDB/EmbeddedBSPs/arm-eabi/com.sysprogs.arm.renesas/3.3.0/ra/fsp/inc/api/r_ioport_api.h",
			"sourceGroupIndex" : 1
		},
		{
			"backtrace" : 6,
			"isGenerated" : true,
			"path" : "build/VisualGDB/Debug/CMakeFiles/BSP.dir/C_/Program_Files_(x86)/Sysprogs/VisualGDB/CMake/embedded/dummy.c.obj",
			"sourceGroupIndex" : 2
		}
	],
	"type" : "OBJECT_LIBRARY"
}
